{
    "service_url": "https://catfact.ninja/breeds?limit=1",
    "request_type": "GET",
    "expected_response_code": "200",
    "expected_response_body": {
        "total":98,
        "per_page":"1",
        "current_page":1,
        "last_page":98,
        "next_page_url":"https:\/\/catfact.ninja\/breeds?page=2",
        "prev_page_url":null,
        "from":1,
        "to":1,
        "data":[
            {
                "breed":"Abyssinian",
                "country":"Ethiopia",
                "origin":"Natural\/Standard",
                "coat":"Short",
                "pattern":"Ticked"
              }
        ]
    }
}
